Started at Tue Sep 15 18:49:18 UTC 2020
Processing my-first-job
Offering my-first-job to Project Build Discarder
Processing my-second-job
Offering my-second-job to Project Build Discarder
Processing Remote-task
Offering Remote-task to Project Build Discarder
Finished at Tue Sep 15 18:49:18 UTC 2020. 6ms
Started at Tue Sep 15 19:49:18 UTC 2020
Processing my-first-job
Offering my-first-job to Project Build Discarder
Processing my-second-job
Offering my-second-job to Project Build Discarder
Processing Remote-task
Offering Remote-task to Project Build Discarder
Finished at Tue Sep 15 19:49:18 UTC 2020. 2ms
Started at Tue Sep 15 20:49:18 UTC 2020
Processing my-first-job
Offering my-first-job to Project Build Discarder
Processing my-second-job
Offering my-second-job to Project Build Discarder
Processing Remote-task
Offering Remote-task to Project Build Discarder
Finished at Tue Sep 15 20:49:18 UTC 2020. 1ms
Started at Tue Sep 15 21:49:18 UTC 2020
Processing my-first-job
Offering my-first-job to Project Build Discarder
Processing my-second-job
Offering my-second-job to Project Build Discarder
Processing Remote-task
Offering Remote-task to Project Build Discarder
Finished at Tue Sep 15 21:49:18 UTC 2020. 2ms
