Started at Mon Sep 14 17:30:33 UTC 2020
Processing my-first-job
Offering my-first-job to Project Build Discarder
Processing my-second-job
Offering my-second-job to Project Build Discarder
Finished at Mon Sep 14 17:30:33 UTC 2020. 5ms
Started at Mon Sep 14 18:30:33 UTC 2020
Processing my-first-job
Offering my-first-job to Project Build Discarder
Processing my-second-job
Offering my-second-job to Project Build Discarder
Finished at Mon Sep 14 18:30:33 UTC 2020. 2ms
Started at Mon Sep 14 19:30:33 UTC 2020
Processing my-first-job
Offering my-first-job to Project Build Discarder
Processing my-second-job
Offering my-second-job to Project Build Discarder
Finished at Mon Sep 14 19:30:33 UTC 2020. 2ms
Started at Mon Sep 14 20:30:33 UTC 2020
Processing my-first-job
Offering my-first-job to Project Build Discarder
Processing my-second-job
Offering my-second-job to Project Build Discarder
Finished at Mon Sep 14 20:30:33 UTC 2020. 1ms
