Started at Mon Sep 14 12:37:35 UTC 2020
Processing my-first-job
Offering my-first-job to Project Build Discarder
Processing my-second-job
Offering my-second-job to Project Build Discarder
Finished at Mon Sep 14 12:37:35 UTC 2020. 5ms
Started at Mon Sep 14 13:37:35 UTC 2020
Processing my-first-job
Offering my-first-job to Project Build Discarder
Processing my-second-job
Offering my-second-job to Project Build Discarder
Finished at Mon Sep 14 13:37:35 UTC 2020. 2ms
Started at Mon Sep 14 14:37:35 UTC 2020
Processing my-first-job
Offering my-first-job to Project Build Discarder
Processing my-second-job
Offering my-second-job to Project Build Discarder
Finished at Mon Sep 14 14:37:35 UTC 2020. 2ms
Started at Mon Sep 14 15:37:35 UTC 2020
Processing my-first-job
Offering my-first-job to Project Build Discarder
Processing my-second-job
Offering my-second-job to Project Build Discarder
Finished at Mon Sep 14 15:37:35 UTC 2020. 1ms
