Started at Wed Sep 16 14:28:48 UTC 2020
Processing my-first-job
Offering my-first-job to Project Build Discarder
Processing my-second-job
Offering my-second-job to Project Build Discarder
Processing Remote-task
Offering Remote-task to Project Build Discarder
Finished at Wed Sep 16 14:28:48 UTC 2020. 9ms
Started at Wed Sep 16 15:28:48 UTC 2020
Processing my-first-job
Offering my-first-job to Project Build Discarder
Processing my-second-job
Offering my-second-job to Project Build Discarder
Processing Remote-task
Offering Remote-task to Project Build Discarder
Finished at Wed Sep 16 15:28:48 UTC 2020. 2ms
Started at Wed Sep 16 16:28:48 UTC 2020
Processing my-first-job
Offering my-first-job to Project Build Discarder
Processing my-second-job
Offering my-second-job to Project Build Discarder
Processing Remote-task
Offering Remote-task to Project Build Discarder
Finished at Wed Sep 16 16:28:48 UTC 2020. 10ms
