Started at Tue Sep 15 14:39:12 UTC 2020
Processing my-first-job
Offering my-first-job to Project Build Discarder
Processing my-second-job
Offering my-second-job to Project Build Discarder
Finished at Tue Sep 15 14:39:12 UTC 2020. 5ms
Started at Tue Sep 15 15:39:12 UTC 2020
Processing my-first-job
Offering my-first-job to Project Build Discarder
Processing my-second-job
Offering my-second-job to Project Build Discarder
Processing Remote-task
Offering Remote-task to Project Build Discarder
Finished at Tue Sep 15 15:39:12 UTC 2020. 1ms
Started at Tue Sep 15 16:39:12 UTC 2020
Processing my-first-job
Offering my-first-job to Project Build Discarder
Processing my-second-job
Offering my-second-job to Project Build Discarder
Processing Remote-task
Offering Remote-task to Project Build Discarder
Finished at Tue Sep 15 16:39:12 UTC 2020. 1ms
